21:30:58-สมชาย->user_login
21:32:04-สมชาย->user_logout
21:34:12-สมชาย->user_login
22:38:29-สมชาย->dulable_dispose:D000000003
22:53:25-สมชาย->dulable_receive:D000000001
22:54:06-สมชาย->dulable_receive:D000000002
23:19:41-สมชาย->dulable_repair:D000000001
23:19:41-สมชาย->dulable_repair:D000000002
