14:58:36-ปราณี->user_login
15:04:20-ปราณี->durable_insert:$drb_id
15:08:29-ปราณี->durable_insert:D0002
15:13:41-ปราณี->durable_stroage:D000000001
15:13:41-ปราณี->durable_stroage:D000000002
15:13:41-ปราณี->durable_stroage:D000000003
15:13:41-ปราณี->durable_stroage:D000000004
15:13:41-ปราณี->durable_stroage:D000000005
15:13:41-ปราณี->durable_stroage:D000000006
15:13:41-ปราณี->durable_stroage:D000000007
15:13:41-ปราณี->durable_stroage:D000000008
15:13:41-ปราณี->durable_stroage:D000000009
15:13:41-ปราณี->durable_stroage:D000000010
15:18:43-ปราณี->user_logout
15:19:02-ปราณี->user_login
15:21:37-ปราณี->durable_stroage:D000000011
15:21:37-ปราณี->durable_stroage:D000000012
15:21:37-ปราณี->durable_stroage:D000000013
15:21:37-ปราณี->durable_stroage:D000000014
15:21:37-ปราณี->durable_stroage:D000000015
15:21:37-ปราณี->durable_stroage:D000000016
15:21:37-ปราณี->durable_stroage:D000000017
15:21:37-ปราณี->durable_stroage:D000000018
15:21:37-ปราณี->durable_stroage:D000000019
15:21:37-ปราณี->durable_stroage:D000000020
15:25:53-ปราณี->durable_edit:D0001
15:27:17-ปราณี->durable_edit:D0001
15:32:35-ปราณี->storage_edit:D000000001
15:32:35-ปราณี->storage_edit:D000000002
15:39:55-ปราณี->dulable_dispose:D000000001
15:39:55-ปราณี->dulable_dispose:D000000002
15:44:50-ปราณี->dulable_dispose_edit:D000000001
15:49:55-ปราณี->dulable_repair:D000000003
15:49:55-ปราณี->dulable_repair:D000000004
15:53:09-ปราณี->dulable_receive:D000000003
15:53:09-ปราณี->dulable_receive:D000000004
15:56:23-ปราณี->dulable_repair:D000000003
15:56:23-ปราณี->dulable_repair:D000000004
16:06:07-ปราณี->dulable_receive:D000000003
16:06:07-ปราณี->dulable_receive:D000000004
16:07:28-ปราณี->user_logout
